<svg id="calendar3" xmlns="http://www.w3.org/2000/svg" width="19" height="19" viewBox="0 0 19 19">
  <path id="Tracé_2520" data-name="Tracé 2520" d="M16.625,0H2.375A2.375,2.375,0,0,0,0,2.375v14.25A2.375,2.375,0,0,0,2.375,19h14.25A2.375,2.375,0,0,0,19,16.625V2.375A2.375,2.375,0,0,0,16.625,0ZM1.188,4.58A1.113,1.113,0,0,1,2.375,3.562h14.25A1.113,1.113,0,0,1,17.813,4.58V16.795a1.113,1.113,0,0,1-1.187,1.018H2.375a1.113,1.113,0,0,1-1.187-1.018Z" transform="translate(0)" fill="#60687e" fill-rule="evenodd"/>
  <path id="Tracé_2521" data-name="Tracé 2521" d="M7.25,7.375A1.187,1.187,0,1,0,6.063,6.188,1.187,1.187,0,0,0,7.25,7.375Zm3.562,0A1.187,1.187,0,1,0,9.625,6.188,1.187,1.187,0,0,0,10.813,7.375Zm3.562,0a1.187,1.187,0,1,0-1.187-1.187A1.187,1.187,0,0,0,14.375,7.375ZM3.687,10.937A1.188,1.188,0,1,0,2.5,9.75,1.188,1.188,0,0,0,3.687,10.937Zm3.563,0A1.188,1.188,0,1,0,6.063,9.75,1.187,1.187,0,0,0,7.25,10.937Zm3.562,0A1.188,1.188,0,1,0,9.625,9.75,1.187,1.187,0,0,0,10.813,10.937Zm3.562,0A1.188,1.188,0,1,0,13.187,9.75,1.187,1.187,0,0,0,14.375,10.937ZM3.687,14.5A1.188,1.188,0,1,0,2.5,13.313,1.188,1.188,0,0,0,3.687,14.5Zm3.563,0a1.188,1.188,0,1,0-1.187-1.187A1.188,1.188,0,0,0,7.25,14.5Zm3.562,0a1.188,1.188,0,1,0-1.187-1.187A1.188,1.188,0,0,0,10.813,14.5Z" transform="translate(0.469 0.938)" fill="#60687e" fill-rule="evenodd"/>
</svg>
