{
  "project_info": {
    "project_number": "822870764385",
    "firebase_url": "https://limited-336d2-default-rtdb.firebaseio.com",
    "project_id": "limited-336d2",
    "storage_bucket": "limited-336d2.appspot.com"
  },
  "client": [
    {
      "client_info": {
        "mobilesdk_app_id": "1:822870764385:android:dfe44be124cadfe3dff320",
        "android_client_info": {
          "package_name": "com.morocode.limited"
        }
      },
      "oauth_client": [
        {
          "client_id": "822870764385-v3pqa1monktmc1a4nfedgknjupk5pfj2.apps.googleusercontent.com",
          "client_type": 3
        }
      ],
      "api_key": [
        {
          "current_key": "AIzaSyA8Nj20toGci0NMDnD0F0Xq9bCdR7wsNpQ"
        }
      ],
      "services": {
        "appinvite_service": {
          "other_platform_oauth_client": [
            {
              "client_id": "822870764385-v3pqa1monktmc1a4nfedgknjupk5pfj2.apps.googleusercontent.com",
              "client_type": 3
            },
            {
              "client_id": "822870764385-n5cnsfc8bqmdjila2sv1h60etquvtnd7.apps.googleusercontent.com",
              "client_type": 2,
              "ios_info": {
                "bundle_id": "com.morocode.limited"
              }
            }
          ]
        }
      }
    }
  ],
  "configuration_version": "1"
}